<?xml version="1.0" encoding="UTF-8" standalone="no"?>
<svg
   xmlns:dc="http://purl.org/dc/elements/1.1/"
   xmlns:cc="http://creativecommons.org/ns#"
   xmlns:rdf="http://www.w3.org/1999/02/22-rdf-syntax-ns#"
   xmlns:svg="http://www.w3.org/2000/svg"
   xmlns="http://www.w3.org/2000/svg"
   xmlns:sodipodi="http://sodipodi.sourceforge.net/DTD/sodipodi-0.dtd"
   xmlns:inkscape="http://www.inkscape.org/namespaces/inkscape"
   width="50.799995mm"
   height="50.799995mm"
   viewBox="0 0 50.799995 50.799996"
   version="1.1"
   id="svg8"
   shape-rendering="crispEdges"
   inkscape:version="1.0.1 (3bc2e813f5, 2020-09-07)"
   sodipodi:docname="tiles.svg"
   inkscape:export-filename="/home/manak/Projects/Godot/platformer/tiles.png"
   inkscape:export-xdpi="96.000008"
   inkscape:export-ydpi="96.000008">
  <defs
     id="defs2" />
  <sodipodi:namedview
     id="base"
     pagecolor="#ffffff"
     bordercolor="#666666"
     borderopacity="1.0"
     inkscape:pageopacity="0.0"
     inkscape:pageshadow="2"
     inkscape:zoom="2.8"
     inkscape:cx="56.130918"
     inkscape:cy="152.69286"
     inkscape:document-units="mm"
     inkscape:current-layer="layer1"
     inkscape:document-rotation="0"
     showgrid="false"
     inkscape:window-width="1920"
     inkscape:window-height="1136"
     inkscape:window-x="0"
     inkscape:window-y="0"
     inkscape:window-maximized="1"
     fit-margin-top="0"
     fit-margin-left="0"
     fit-margin-right="0"
     fit-margin-bottom="0" />
  <metadata
     id="metadata5">
    <rdf:RDF>
      <cc:Work
         rdf:about="">
        <dc:format>image/svg+xml</dc:format>
        <dc:type
           rdf:resource="http://purl.org/dc/dcmitype/StillImage" />
        <dc:title />
      </cc:Work>
    </rdf:RDF>
  </metadata>
  <g
     inkscape:label="Layer 1"
     inkscape:groupmode="layer"
     id="layer1">
    <rect
       style="fill:#e56b00;stroke:none;stroke-width:2.64583;stroke-linecap:round;stroke-linejoin:round"
       id="rect833"
       width="16.933332"
       height="16.933332"
       x="0"
       y="0" />
    <rect
       style="fill:#0079e5;fill-opacity:1;stroke:none;stroke-width:2.64583;stroke-linecap:round;stroke-linejoin:round"
       id="rect833-2"
       width="16.933332"
       height="16.933332"
       x="16.933332"
       y="0" />
    <rect
       style="fill:#d500e5;fill-opacity:1;stroke:none;stroke-width:2.64583;stroke-linecap:round;stroke-linejoin:round"
       id="rect833-2-2"
       width="16.933332"
       height="16.933332"
       x="33.866665"
       y="0" />
    <rect
       style="fill:#954600;fill-opacity:1;stroke:none;stroke-width:2.64583;stroke-linecap:round;stroke-linejoin:round"
       id="rect833-6"
       width="16.933332"
       height="6.1082273"
       x="0"
       y="3.4754141e-08" />
    <rect
       style="fill:#004a8d;fill-opacity:1;stroke:none;stroke-width:2.64583;stroke-linecap:round;stroke-linejoin:round"
       id="rect833-2-1"
       width="16.933332"
       height="6.1082273"
       x="16.933332"
       y="3.4754141e-08" />
    <rect
       style="fill:#690071;fill-opacity:1;stroke:none;stroke-width:2.64583;stroke-linecap:round;stroke-linejoin:round"
       id="rect833-2-2-0"
       width="16.933332"
       height="6.1082273"
       x="33.866665"
       y="3.4754141e-08" />
    <rect
       style="fill:#0079e5;fill-opacity:1;stroke:none;stroke-width:2.64583;stroke-linecap:round;stroke-linejoin:round"
       id="rect833-2-5"
       width="16.933332"
       height="16.933332"
       x="16.933332"
       y="16.933332"
       ry="6.1082268"
       rx="6.1082268" />
    <circle
       style="fill:#954600;fill-opacity:1;stroke:none;stroke-width:2.64583;stroke-linecap:round;stroke-linejoin:round"
       id="path916"
       cx="8.3597698"
       cy="26.193308"
       r="5.8785629" />
    <rect
       style="fill:#737373;fill-opacity:1;stroke:none;stroke-width:2.64583;stroke-linecap:round;stroke-linejoin:round"
       id="rect833-22"
       width="50.799999"
       height="14.303041"
       x="0"
       y="36.496956" />
    <path
       id="rect833-6-0"
       style="fill:#383838;fill-opacity:1;stroke:none;stroke-width:2.64582;stroke-linecap:round;stroke-linejoin:round"
       d="m 0,33.866665 h 3.1242094 c 0,0 9.1719556,0.541328 13.7618026,0.729745 5.649066,0.231899 11.303054,0.663826 16.9543,0.493141 4.560248,-0.137733 13.632243,-1.222886 13.632243,-1.222886 h 3.327444 v 6.108227 c 0,0 -3.135301,0.122388 -4.695763,0 -1.349349,-0.10583 -2.659511,-0.556339 -4.010829,-0.633036 -4.884175,-0.277214 -9.126415,0.834008 -14.662449,0.633036 C 21.894924,39.77392 12.892672,38.273706 8.9042184,38.627983 4.915765,38.98226 5.4262843,39.748645 3.6239944,39.974892 2.4254034,40.125355 0,39.974892 0,39.974892 Z"
       sodipodi:nodetypes="ccaacccaazzacc" />
  </g>
</svg>
