[gd_scene load_steps=3 format=2]

[ext_resource path="res://tileset.tres" type="TileSet" id=1]
[ext_resource path="res://levels/base/Level.tscn" type="PackedScene" id=2]

[node name="Level_1" instance=ExtResource( 2 )]

[node name="StartingPosition" parent="." index="0"]
position = Vector2( 158.087, 793.461 )

[node name="ExitArea" parent="." index="1"]
position = Vector2( 1008, 661.746 )

[node name="TileMap" type="TileMap" parent="." index="2"]
position = Vector2( 0.964247, 964.764 )
tile_set = ExtResource( 1 )
format = 1
tile_data = PoolIntArray( -917504, 4, 0, -917503, 4, 0, -917502, 4, 0, -917501, 4, 0, -917500, 4, 0, -917499, 4, 0, -917498, 4, 0, -917497, 4, 0, -917496, 4, 0, -917495, 4, 0, -917494, 4, 0, -917493, 4, 0, -917492, 4, 0, -917491, 4, 0, -917490, 4, 0, -917489, 4, 0, -917488, 4, 0, -917487, 4, 0, -917486, 4, 0, -917485, 4, 0, -917484, 4, 0, -917483, 4, 0, -917482, 4, 0, -917481, 4, 0, -917480, 4, 0, -851968, 4, 0, -851964, 4, 0, -851949, 4, 0, -851944, 4, 0, -851943, 4, 0, -851942, 4, 0, -786432, 4, 0, -786429, 3, 0, -786428, 4, 0, -786417, 2, 0, -786416, 2, 0, -786415, 2, 0, -786414, 2, 0, -786413, 4, 0, -786405, 4, 0, -786404, 4, 0, -720896, 4, 0, -720894, 2, 0, -720893, 2, 0, -720892, 2, 0, -720881, -1073741822, 0, -720869, 3, 0, -720868, 4, 0, -655360, 4, 0, -655355, 2, 0, -655345, -1073741822, 0, -655337, 0, 0, -655336, 0, 0, -655335, 0, 0, -655334, 0, 0, -655333, 0, 0, -655332, 4, 0, -655331, 4, 0, -655330, 4, 0, -655329, 4, 0, -589824, 4, 0, -589823, 2, 0, -589822, 2, 0, -589818, 2, 0, -589814, 1610612738, 0, -589813, 1610612738, 0, -589812, 1610612738, 0, -589811, 1610612738, 0, -589810, 1610612738, 0, -589809, 1610612738, 0, -589806, 3, 0, -589805, 2, 0, -589804, 2, 0, -589793, 4, 0, -524288, 4, 0, -524286, 2, 0, -524285, 2, 0, -524281, 2, 0, -524266, 2, 0, -524265, 2, 0, -524264, 2, 0, -524263, 2, 0, -524257, 4, 0, -458752, 4, 0, -458749, 2, 0, -458748, 2, 0, -458741, 2, 0, -458740, 2, 0, -458739, 2, 0, -458738, 2, 0, -458737, 2, 0, -458736, 2, 0, -458727, 2, 0, -458726, 2, 0, -458721, 4, 0, -393216, 4, 0, -393212, 2, 0, -393211, 2, 0, -393210, 2, 0, -393209, 4, 0, -393208, 4, 0, -393188, 4, 0, -393187, 4, 0, -393186, 4, 0, -393185, 4, 0, -327680, 4, 0, -327670, 2, 0, -327669, 2, 0, -327668, 5, 2, -327667, 5, 0, -327666, 5, 1, -327659, 4, 0, -327658, 4, 0, -327657, 4, 0, -327656, 4, 0, -327655, 4, 0, -327654, 4, 0, -327653, 4, 0, -327652, 4, 0, -262144, 4, 0, -262135, 2, 0, -262132, 2, 0, -262129, 5, 0, -262128, 5, 1, -262127, 5, 2, -262126, 5, 1, -262125, 5, 2, -262123, 4, 0, -196608, 4, 0, -196603, 2, 0, -196602, 2, 0, -196601, 2, 0, -196595, 2, 0, -196587, 4, 0, -131072, 4, 0, -131071, 0, 0, -131070, 0, 0, -131069, 0, 0, -131058, 2, 0, -131051, 4, 0, -65535, 4, 0, -65534, 4, 0, -65533, 4, 0, -65532, 4, 0, -65531, 4, 0, -65530, 4, 0, -65529, 4, 0, -65528, 4, 0, -65527, 4, 0, -65526, 4, 0, -65525, 4, 0, -65524, 4, 0, -65523, 4, 0, -65522, 4, 0, -65521, 4, 0, -65520, 4, 0, -65519, 4, 0, -65518, 4, 0, -65517, 4, 0, -65516, 4, 0, -65515, 4, 0 )
